<?xml version="1.0" encoding="UTF-8" standalone="no"?>
<!-- Generator: Adobe Illustrator 19.0.0, SVG Export Plug-In . SVG Version: 6.00 Build 0)  -->

<svg
   xmlns:dc="http://purl.org/dc/elements/1.1/"
   xmlns:cc="http://creativecommons.org/ns#"
   xmlns:rdf="http://www.w3.org/1999/02/22-rdf-syntax-ns#"
   xmlns:svg="http://www.w3.org/2000/svg"
   xmlns="http://www.w3.org/2000/svg"
   xmlns:sodipodi="http://sodipodi.sourceforge.net/DTD/sodipodi-0.dtd"
   xmlns:inkscape="http://www.inkscape.org/namespaces/inkscape"
   version="1.1"
   id="Layer_1"
   x="0px"
   y="0px"
   viewBox="0 0 383.99701 472.65426"
   xml:space="preserve"
   inkscape:version="0.91 r13725"
   sodipodi:docname="ScavIconMainWhite.svg"
   width="383.99701"
   height="472.65427"><metadata
     id="metadata3740"><rdf:RDF><cc:Work
         rdf:about=""><dc:format>image/svg+xml</dc:format><dc:type
           rdf:resource="http://purl.org/dc/dcmitype/StillImage" /><dc:title></dc:title></cc:Work></rdf:RDF></metadata><defs
     id="defs3738" /><sodipodi:namedview
     pagecolor="#3e392f"
     bordercolor="#666666"
     borderopacity="1"
     objecttolerance="10000"
     gridtolerance="10000"
     guidetolerance="10000"
     inkscape:pageopacity="1"
     inkscape:pageshadow="2"
     inkscape:window-width="1309"
     inkscape:window-height="744"
     id="namedview3736"
     showgrid="true"
     showguides="false"
     inkscape:snap-bbox="false"
     inkscape:snap-bbox-edge-midpoints="false"
     inkscape:snap-object-midpoints="false"
     inkscape:snap-global="true"
     inkscape:snap-grids="true"
     inkscape:snap-to-guides="false"
     inkscape:snap-nodes="true"
     inkscape:snap-others="false"
     inkscape:zoom="1"
     inkscape:cx="116.78836"
     inkscape:cy="262.692"
     inkscape:window-x="57"
     inkscape:window-y="24"
     inkscape:window-maximized="1"
     inkscape:current-layer="layer1"
     inkscape:snap-center="false"
     inkscape:snap-intersection-paths="false"
     inkscape:object-nodes="true"
     inkscape:snap-perpendicular="false"
     inkscape:snap-tangential="false"
     inkscape:snap-page="false"
     inkscape:bbox-nodes="true"
     inkscape:bbox-paths="false"
     inkscape:snap-smooth-nodes="false"
     inkscape:snap-midpoints="false"
     inkscape:object-paths="false"
     fit-margin-top="0"
     fit-margin-left="0"
     fit-margin-right="0"
     fit-margin-bottom="0"><inkscape:grid
       type="xygrid"
       id="grid3761"
       originx="-63.9995"
       originy="-16.00824" /></sodipodi:namedview><g
     id="g3706"
     transform="translate(-63.9995,-23.33349)" /><g
     id="g3708"
     transform="translate(-63.9995,-23.33349)" /><g
     id="g3710"
     transform="translate(-63.9995,-23.33349)" /><g
     id="g3712"
     transform="translate(-63.9995,-23.33349)" /><g
     id="g3714"
     transform="translate(-63.9995,-23.33349)" /><g
     id="g3716"
     transform="translate(-63.9995,-23.33349)" /><g
     id="g3718"
     transform="translate(-63.9995,-23.33349)" /><g
     id="g3720"
     transform="translate(-63.9995,-23.33349)" /><g
     id="g3722"
     transform="translate(-63.9995,-23.33349)" /><g
     id="g3724"
     transform="translate(-63.9995,-23.33349)" /><g
     id="g3726"
     transform="translate(-63.9995,-23.33349)" /><g
     id="g3728"
     transform="translate(-63.9995,-23.33349)" /><g
     id="g3730"
     transform="translate(-63.9995,-23.33349)" /><g
     id="g3732"
     transform="translate(-63.9995,-23.33349)" /><g
     id="g3734"
     transform="translate(-63.9995,-23.33349)" /><g
     id="g3911"
     transform="translate(467.21169,-428.67148)" /><g
     id="g3913"
     transform="translate(467.21169,-428.67148)" /><g
     id="g3915"
     transform="translate(467.21169,-428.67148)" /><g
     id="g3917"
     transform="translate(467.21169,-428.67148)" /><g
     id="g3919"
     transform="translate(467.21169,-428.67148)" /><g
     id="g3921"
     transform="translate(467.21169,-428.67148)" /><g
     id="g3923"
     transform="translate(467.21169,-428.67148)" /><g
     id="g3925"
     transform="translate(467.21169,-428.67148)" /><g
     id="g3927"
     transform="translate(467.21169,-428.67148)" /><g
     id="g3929"
     transform="translate(467.21169,-428.67148)" /><g
     id="g3931"
     transform="translate(467.21169,-428.67148)" /><g
     id="g3933"
     transform="translate(467.21169,-428.67148)" /><g
     id="g3935"
     transform="translate(467.21169,-428.67148)" /><g
     id="g3937"
     transform="translate(467.21169,-428.67148)" /><g
     id="g3939"
     transform="translate(467.21169,-428.67148)" /><g
     inkscape:groupmode="layer"
     id="layer1"
     inkscape:label="MainBox"
     style="display:inline"
     transform="translate(-63.9995,-23.33349)"><g
       id="g3700"
       transform="matrix(0.75,0,0,0.75,63.9995,127.99575)"
       style="fill:#ffffff"><g
         id="g3702"
         style="fill:#ffffff"><path
           d="m 447.997,74.668 -117.328,0 -149.343,0 -117.327,0 -21.327,0 -32,0 C 4.781,74.668 0,79.449 0,85.34 l 0,42.663 c 0,5.891 4.781,10.664 10.672,10.664 l 10.656,0 0,266.677 C 21.328,411.219 26.109,416 32,416 l 25.156,0 c -8.875,7.828 -14.484,19.266 -14.484,32 0,23.531 19.14,42.656 42.655,42.656 23.531,0 42.672,-19.125 42.672,-42.656 0,-7.906 -2.172,-15.312 -5.922,-21.656 L 132.421,416 l 247.154,0 10.344,10.344 c -3.75,6.344 -5.922,13.75 -5.922,21.656 0,23.531 19.141,42.656 42.672,42.656 23.516,0 42.655,-19.125 42.655,-42.656 0,-12.734 -5.609,-24.172 -14.483,-32 l 25.155,0 c 5.891,0 10.672,-4.781 10.672,-10.656 l 0,-266.677 10.656,0 c 5.891,0 10.672,-4.773 10.672,-10.664 l 0,-42.663 c 0,-5.891 -4.781,-10.672 -10.672,-10.672 l -32,0 M 85.327,469.344 c -11.75,0 -21.328,-9.578 -21.328,-21.344 0,-2.188 0.344,-4.281 0.953,-6.281 1.672,3.703 5.391,6.281 9.719,6.281 0,2.719 1.031,5.469 3.125,7.547 4.156,4.172 10.906,4.172 15.078,0 2.078,-2.078 3.125,-4.828 3.125,-7.547 2.828,0 5.547,-1.125 7.547,-3.125 l 2.391,-2.406 c 0.468,1.781 0.734,3.625 0.734,5.531 0,11.766 -9.578,21.344 -21.344,21.344 z m 0,-42.688 0,-10.656 16.922,0 -10.672,10.656 z m 341.342,42.688 c -11.766,0 -21.344,-9.578 -21.344,-21.344 0,-1.906 0.266,-3.75 0.734,-5.531 l 2.391,2.406 c 2,2 4.719,3.125 7.547,3.125 0,2.719 1.047,5.469 3.125,7.547 4.172,4.172 10.922,4.172 15.078,0 2.094,-2.078 3.125,-4.828 3.125,-7.547 4.328,0 8.047,-2.578 9.719,-6.281 0.609,2 0.953,4.094 0.953,6.281 0,11.766 -9.578,21.344 -21.328,21.344 z M 409.747,416 l 16.922,0 0,10.656 -6.25,0 z m 59.577,-21.342 -31.999,0 -10.656,0 0,-53.312 c 0,-5.906 -4.781,-10.688 -10.672,-10.688 -5.891,0 -10.672,4.781 -10.672,10.688 l 0,53.312 -21.328,0 -255.998,0 -21.328,0 0,-53.312 c 0,-5.906 -4.781,-10.688 -10.672,-10.688 -5.891,0 -10.672,4.781 -10.672,10.688 l 0,53.312 -10.656,0 -31.999,0 0,-255.991 10.656,0 c 0,5.891 4.78,10.672 10.671,10.672 5.891,0 10.672,-4.781 10.672,-10.672 l 21.328,0 c 0,5.891 4.781,10.672 10.672,10.672 5.891,0 10.656,-4.781 10.656,-10.672 l 21.344,0 c 0,5.891 4.766,10.672 10.656,10.672 5.89,0 10.672,-4.781 10.672,-10.672 l 21.327,0 c 0,5.891 4.781,10.672 10.672,10.672 5.891,0 10.672,-4.781 10.672,-10.672 l 21.328,0 c 0,5.891 4.781,10.672 10.672,10.672 5.891,0 10.656,-4.781 10.656,-10.672 l 21.344,0 c 0,5.891 4.766,10.672 10.656,10.672 5.89,0 10.672,-4.781 10.672,-10.672 l 21.327,0 c 0,5.891 4.781,10.672 10.672,10.672 5.891,0 10.672,-4.781 10.672,-10.672 l 21.328,0 c 0,5.891 4.781,10.672 10.672,10.672 5.891,0 10.656,-4.781 10.656,-10.672 l 21.344,0 c 0,5.891 4.766,10.672 10.656,10.672 5.89,0 10.672,-4.781 10.672,-10.672 l 21.328,0 c 0,5.891 4.781,10.672 10.672,10.672 5.891,0 10.672,-4.781 10.672,-10.672 l 10.655,0 z m 21.344,-277.319 -10.672,0 -447.996,0 -10.672,0 0,-21.335 32,0 405.341,0 31.999,0 z"
           id="path3704"
           inkscape:connector-curvature="0"
           sodipodi:nodetypes="cccccsssscsscsssccccssscsscsssscsscccscccsscccccsscccscccssccccccccsssccccssscccccsccsccsccsccsccsccsccsccsccscccccccccccc"
           style="fill:#ffffff" /></g></g></g><g
     inkscape:groupmode="layer"
     id="layer2"
     inkscape:label="Jewels"
     style="display:inline"
     transform="translate(-63.9995,-23.33349)"><g
       id="g3899"
       transform="matrix(0.75,0,0,0.75,462.95027,-173.91979)"
       style="fill:#ffffff"><g
         id="g3901"
         style="fill:#ffffff"><path
           inkscape:connector-curvature="0"
           d="m -463.60144,416.52805 -19.62,19.62 c -3.429,3.427 -4.872,8.317 -3.861,13.081 l 5.661,28.17709 0.0321,10.01352 395.061106,0.0734 0.0937,-10.04479 23.74006,-30.45922 c 4.425,-5.436 4.83,-13.038 1.009,-18.917 l -26.24,-40.374 c -2.922,-4.49 -5.61585,-7.60474 -19.881416,-7.44187 l -87.97158,0.20887 c -5.377,0 -10.346,2.705 -13.29,7.236 l -4.868,7.49 -43.989,-44.023 c -2.629,-2.633 -6.126,-4.083 -9.848,-4.083 -3.723,0 -7.221,1.449 -9.851,4.081 l -49.307,49.348 c -2.627,2.631 -4.073,6.127 -4.073,9.845 0,3.723 1.448,7.221 4.075,9.848 l 4.035,4.039 c -9.037,3.596 -15.772,11.138 -18.535,20.165 -4.435,-2.314 -9.42,-3.581 -14.596,-3.581 -2.328,0 -4.63,0.257 -6.872,0.76 l -4.342,-42.392 c -0.644,-6.275 -5.223,-11.37 -11.396,-12.678 l -37.903,-8.044 c -0.98,-0.207 -1.982,-0.312 -2.982,-0.312 -3.82,0 -7.406,1.483 -10.096,4.174 l -18.515,18.514 m 336.72,-4.713 -11.301,17.384 -11.299,-17.384 z m -87.627,49.081 13.094,0 9.59,29.58 -9.891,0 c 1.387,-11.161 -3.236,-22.644 -12.793,-29.58 z m -102.353,-21.629 -5.024,-5.028 12.489,0 10.569,10.576 c -1.403,1.218 -2.705,2.554 -3.879,4.005 -3.739,-4.392 -8.638,-7.719 -14.155,-9.553 z m 23.058,26.513 c 1.417,-7.541 7.971,-13.014 15.583,-13.014 0.986,0 1.984,0.094 2.965,0.28 8.614,1.633 14.296,10.01 12.666,18.674 -1.416,7.539 -7.968,13.011 -15.577,13.011 -0.987,0 -1.986,-0.094 -2.972,-0.282 -8.613,-1.632 -14.295,-10.006 -12.665,-18.669 z m 30.244,-25.067 6.994,-7 c 0.016,-0.016 0.028,-0.032 0.043,-0.048 l 12.494,0 -12.292,12.302 c -2.132,-2.068 -4.561,-3.844 -7.239,-5.254 z m 6.624,-22.721 0,-0.001 -18.265,-18.279 0,-12.498 30.754,30.779 -12.489,0 z m -14.117,8.045 -11.335,11.342 c -0.498,0.066 -0.993,0.141 -1.484,0.231 l -11.564,-11.573 12.191,-12.201 z m -19.821,-26.735 c -0.022,0.022 -0.046,0.04 -0.068,0.062 l -18.971,18.987 c -0.069,0.069 -0.127,0.145 -0.194,0.215 l -12.511,0 31.744,-31.77 z m -20.274,66.867 c 1.733,8.642 -3.848,17.087 -12.441,18.824 -1.043,0.211 -2.103,0.318 -3.154,0.318 -7.52,0 -14.059,-5.394 -15.548,-12.827 -1.734,-8.642 3.847,-17.086 12.443,-18.823 1.044,-0.211 2.104,-0.318 3.155,-0.318 7.517,0 14.055,5.394 15.545,12.826 z m 64.781,11.693 c 2.941,-4.587 7.943,-7.326 13.379,-7.326 3.03,0 5.99,0.877 8.56,2.537 5.904,3.813 8.441,10.916 6.794,17.404 l -30.74,0 c -1.063,-4.158 -0.485,-8.726 2.007,-12.615 z m 13.324,-32.64 17.506,-26.933 16.439,25.291 -1.067,1.643 -32.878,0 z m 31.992,-33.407 22.598,0 -11.3,17.385 z m 37.084,6.472 16.438,25.292 -1.069,1.645 -30.74,0 -1.069,-1.644 z m -191.797,72.19 -31.408,0 c -0.857,-5.943 1.648,-12.132 6.957,-15.654 2.605,-1.727 5.619,-2.64 8.72,-2.64 5.358,0 10.318,2.678 13.27,7.162 2.245,3.41 3.01,7.374 2.461,11.132 z m -53.703,-11.385 5.811,11.384 -8.222,0 -31.545,-16.099 20.89,-20.89 4.208,8.244 c 1.385,2.715 4.135,4.276 6.986,4.276 1.198,0 2.416,-0.276 3.556,-0.858 3.855,-1.968 5.385,-6.687 3.418,-10.542 l -6.517,-12.77 13.771,-13.771 3.816,37.255 c -1.44,1.383 -2.725,2.883 -3.855,4.477 -2.343,-2.181 -5.883,-2.789 -8.898,-1.25 -3.857,1.968 -5.386,6.689 -3.419,10.544 z m -42.562,-18.274 -4.292,-20.227 20.227,4.29 z m 5.672,29.659 -13.164,0 4.448,-4.448 z m -4.312,-64.71 8.87,-8.87 2.389,11.259 z m 23.694,-14.521 20.226,4.291 -15.936,15.936 z m -44.169,34.997 2.389,11.258 -11.259,-2.389 z m 5.706,27.984 -15.935,15.936 -4.291,-20.225 z m 344.416,16.25 -54.325,0 -9.59,-29.58 41.941,0 -4.354,13.429 c -1.334,4.117 0.922,8.537 5.037,9.871 0.802,0.26 1.619,0.385 2.419,0.385 3.305,0 6.378,-2.108 7.453,-5.422 l 5.921,-18.263 29.581996,0 z m -6.744,-45.255 -1.068,-1.644 16.437996,-25.292 17.505,26.935 -32.874996,0 z"
           id="path3903"
           sodipodi:nodetypes="csscccccccccccccccccccscccsccccccccccccccccccccccccccccsccccccccccccccccccccccccccccccsccsccsccccccccccccccccsccccsccccccsscccccccsccccccccccccccccccccccccccccccccsccccs"
           style="fill:#ffffff" /></g></g></g><g
     inkscape:groupmode="layer"
     id="layer3"
     inkscape:label="Lid"
     style="display:none"
     transform="translate(-63.9995,-23.33349)"><g
       id="g8099"
       transform="translate(0,-162.672)"><g
         id="g8101"><path
           inkscape:connector-curvature="0"
           d="m 20,258.668 20,0 0,-159.999998 430.668,0.008 0,159.999998 20,0 0,-179.999998 0,-45 c 0,-5.890999 -4.111,-9.999896 -10,-10 l -451.009001,-0.008 c -5.891,-1.04e-4 -9.658999,4.109 -9.658999,10 l 0,40 m 20,-29 430.668,-0.992 0,35 -140.668,-4.008 c 0,-5.891 -4.109,-15 -10,-15 l -125,0 c -5.891,0 -10,9.109 -10,15 l -145,4 z"
           id="path8103"
           sodipodi:nodetypes="cccccccsssscccccssccc" /></g></g><g
       id="g8105" /><g
       id="g8107" /><g
       id="g8109" /><g
       id="g8111" /><g
       id="g8113" /><g
       id="g8115" /><g
       id="g8117" /><g
       id="g8119" /><g
       id="g8121" /><g
       id="g8123" /><g
       id="g8125" /><g
       id="g8127" /><g
       id="g8129" /><g
       id="g8131" /><g
       id="g8133" /></g><g
     inkscape:groupmode="layer"
     id="layer4"
     inkscape:label="Sparkle"
     style="display:inline"
     transform="translate(-63.9995,-23.33349)"><g
       id="g3584"
       style="fill:#ffffff"><g
         transform="matrix(0.75,0,0,0.75,44.0335,-35.45601)"
         id="g3875"
         style="fill:#ffffff"><g
           id="g3877"
           style="fill:#ffffff"><path
             id="path3879"
             d="m 503.011,132.427 c -12.504,-3.44 -13.125,-4.057 -16.571,-16.513 -1.464,-5.279 -6.317,-8.966 -11.801,-8.966 -5.488,0 -10.34,3.689 -11.802,8.968 -3.449,12.452 -4.068,13.07 -16.572,16.51 -5.296,1.459 -8.995,6.307 -8.995,11.791 0,5.48 3.697,10.329 8.996,11.791 12.503,3.44 13.123,4.057 16.571,16.509 1.463,5.281 6.316,8.968 11.802,8.968 5.483,0 10.335,-3.686 11.802,-8.97 3.446,-12.452 4.066,-13.069 16.577,-16.51 5.288,-1.461 8.982,-6.308 8.982,-11.789 0,-5.481 -3.695,-10.329 -8.989,-11.789 z m -28.389,26.07 c -3.107,-7.191 -7.102,-11.18 -14.303,-14.28 7.201,-3.099 11.196,-7.09 14.303,-14.281 3.087,7.261 7.013,11.196 14.26,14.282 -7.248,3.085 -11.175,7.021 -14.26,14.279 z"
             inkscape:connector-curvature="0"
             style="fill:#ffffff" /></g></g><g
         transform="matrix(0.75,0,0,0.75,71.98525,-5.2724978)"
         id="g3881"
         style="fill:#ffffff"><g
           id="g3883"
           style="fill:#ffffff"><path
             id="path3885"
             d="m 65.742,63.618317 c -12.503,-3.44 -13.123,-4.056 -16.572,-16.511 -1.464,-5.279 -6.316,-8.966 -11.8,-8.966 -5.485,0 -10.339,3.687 -11.803,8.968 -3.448,12.451 -4.067,13.068 -16.5729999,16.509 -5.295,1.459 -8.994000046734354,6.308 -8.994000046734354,11.791 0,5.479 3.697000046734356,10.327 8.996000046734355,11.79 12.5029999,3.441 13.1229999,4.058 16.5709999,16.515003 1.465,5.279 6.318,8.965 11.802,8.965 5.484,0 10.335,-3.686 11.802,-8.969 3.448,-12.453003 4.069,-13.071003 16.578,-16.513003 5.288,-1.461 8.981,-6.308 8.981,-11.787 0,-5.485 -3.695,-10.334 -8.988,-11.792 z m -28.389,26.073 c -3.108,-7.193 -7.102,-11.182 -14.304,-14.283 7.202,-3.099 11.197,-7.089 14.304,-14.281 3.088,7.262 7.012,11.197 14.26,14.282 -7.249,3.086 -11.173,7.021 -14.26,14.282 z"
             inkscape:connector-curvature="0"
             style="fill:#ffffff" /></g></g><g
         transform="matrix(0.75,0,0,0.75,71.118,-16.876745)"
         id="g3887"
         style="fill:#ffffff"><g
           id="g3889"
           style="fill:#ffffff"><path
             id="path3891"
             d="m 204.274,136.375 c -11.081,-3.049 -11.489,-3.456 -14.544,-14.491 -1.416,-5.102 -6.107,-8.666 -11.408,-8.666 -5.302,0 -9.993,3.564 -11.41,8.669 -3.054,11.03 -3.462,11.436 -14.539,14.487 -5.122,1.409 -8.7,6.097 -8.7,11.401 0,5.302 3.576,9.989 8.698,11.4 11.079,3.05 11.487,3.455 14.542,14.491 1.416,5.104 6.109,8.67 11.409,8.67 5.301,0 9.992,-3.565 11.409,-8.673 3.054,-11.032 3.463,-11.437 14.548,-14.487 5.114,-1.411 8.685,-6.098 8.685,-11.399 0.001,-5.305 -3.572,-9.994 -8.69,-11.402 z m -25.952,22.629 c -2.576,-5.362 -5.868,-8.656 -11.231,-11.229 5.362,-2.574 8.655,-5.866 11.231,-11.229 2.576,5.362 5.868,8.655 11.229,11.229 -5.362,2.573 -8.654,5.866 -11.229,11.229 z"
             inkscape:connector-curvature="0"
             style="fill:#ffffff" /></g></g></g></g></svg>